1
3
7
11
16
21
27
33
41
46
64
65
72
80
92
99
105
116
121
136
142
155
161
189
185
201
208
224
235
252
253
273
285
317
321
321
370
340
370
405
399
463
454
438
464
469
481
525
514
547
561
650
570
614
622
636
655
661
687
694
720
730
742
773
818
813
840
853
857
888
967
908
965
964
955
1010
1019
1047
1073
1129
1123
1106
1140
1167
1204
1214
1224
1236
1306
1354
1293
1355
1362
1379
1393
1427
1467
1460
1484
1501
