
1. Дано отношение
A	B	C	D
1	2	4	1
1	2	1	2
1	3	4	1
1	3	1	2
2	2	2	2
2	3	1	4
2	2	1	4
2	3	2	2

Есть ли в этом отношении многозначная зависимость? Обозначьте её

A -> B|(CD)

2. Пусть дано отношение R(A, B, C, D, E, F, G), которое определяется функциональными зависимостями: A -> B, CD -> G, B -> F, AF -> D, DE -> C, A -> E.
Определяет ли гарантированно зависимость ACDE -> FG отношение R?

	Да

3. Пусть F = {A -> B, CD -> G, B -> F, AF -> D, DE -> C, A -> E}
Найдите замыкание F+

	AEBFDCG
	ABFEDCG
	CDG 
	AFDBECG
	DECG 
	BF 


4. Пусть отношение R(A, B, C, D, E) определяется многозначными зависимостями 
A -> B 
B -> D
C -> E
Предложите декомпозицию этого отношения, которое будет удовлетворять 4NF. 

	R1(A -> BD)
	R2(A -> CE)